…
``` r
dd$studyTrait=paste(dd$Study.ID, dd$Trait, sep="_")
tb.summary = dd %>% group_by (studyTrait) %>% summarise(Freq=n()) %>% arrange(desc(Freq))
tb.summary
```

    ## # A tibble: 1,525 × 2
    ##    studyTrait                                  Freq
    ##    <chr>                                      <int>
    ##  1 375_Platelet Function Tests                15653
    ##  2 267_Child Development Disorders, Pervasive  5121
    ##  3 NA_Bronchodilator Agents                    3459
    ##  4 NA_Lung Volume Measurements                 2296
    ##  5 NA_Body Mass Index                          1992
    ##  6 NA_Forced Expiratory Volume                 1554
    ##  7 NA_Schizophrenia                            1350
    ##  8 342_Echocardiography                        1183
    ##  9 221_Body Height                             1153
    ## 10 342_Cholesterol, HDL                        1146
    ## # ℹ 1,515 more rows

``` r
dd=dd[!is.element(dd$studyTrait, 
                  c("375_Platelet Function Tests", "267_Child Development Disorders, Pervasive")), ]
dim(dd)
```

    ## [1] 115752     18

``` r
tb.summary = dd %>% group_by (studyTrait) %>% summarise(Freq=n()) %>% arrange(desc(Freq))
tb.summary
```

    ## # A tibble: 1,523 × 2
    ##    studyTrait                   Freq
    ##    <chr>                       <int>
    ##  1 NA_Bronchodilator Agents     3459
    ##  2 NA_Lung Volume Measurements  2296
    ##  3 NA_Body Mass Index           1992
    ##  4 NA_Forced Expiratory Volume  1554
    ##  5 NA_Schizophrenia             1350
    ##  6 342_Echocardiography         1183
    ##  7 221_Body Height              1153
    ##  8 342_Cholesterol, HDL         1146
    ##  9 342_Blood Pressure           1060
    ## 10 221_Blood Pressure            971
    ## # ℹ 1,513 more rows
…
